…
``` r
data_concentration |>
  group_by(treatment_group, timepoint, tech_rep) |>
  summarize(
    conc_min = min(log_concentration, na.rm = TRUE),
    conc_med = median(log_concentration, na.rm = TRUE),
    conc_max = max(log_concentration, na.rm = TRUE)
  )
```

    ## `summarise()` has grouped output by 'treatment_group', 'timepoint'. You can
    ## override using the `.groups` argument.

    ## # A tibble: 48 × 6
    ## # Groups:   treatment_group, timepoint [16]
    ##    treatment_group timepoint tech_rep conc_min conc_med conc_max
    ##    <fct>               <int> <fct>       <dbl>    <dbl>    <dbl>
    ##  1 A                       0 1            14.5     14.5     14.6
    ##  2 A                       0 2            14.7     14.8     14.8
    ##  3 A                       0 3            15.0     15.4     15.4
    ##  4 A                       1 1            15.3     15.4     15.4
    ##  5 A                       1 2            15.0     15.1     15.2
    ##  6 A                       1 3            15.0     15.0     15.1
    ##  7 A                       2 1            15.2     15.2     15.3
    ##  8 A                       2 2            15.2     15.3     15.3
    ##  9 A                       2 3            14.9     14.9     14.9
    ## 10 A                       3 1            14.6     14.7     14.7
    ## # … with 38 more rows
…
